Chapter 6 Calculate Cost, Environment, and Social Impact Factors | LASTING Four-Pillar Model Methodology
…
# bind with subgroup 0
allfoods_cost_wasted_bysub1 <- rbind(allfoods_cost_wasted, allfoods_cost_wasted_bysub)

6.2.1.5 Clean Output Data

Apply the cleaning function (defined above) to the mean cost dataset.

# APPLY FUNCTION TO COST DAT
cost_dat <- clean_func(x = allfoods_cost_bysub1, y = "price")

## # A tibble: 5,292 × 5
##    subgroup food                   price_mean  price_se food_type  
##       <dbl> <chr>                       <dbl>     <dbl> <chr>      
##  1        0 Consumed_added_sugar_0  0.164     0.00690   Total      
##  2        0 Consumed_added_sugar_0  0.0826    0.00345   Grocery    
##  3        0 Consumed_added_sugar_0  0.0811    0.00494   Non-Grocery
##  4        0 Consumed_babyfood_0     0.0000216 0.0000184 Total      
##  5        0 Consumed_babyfood_0     0.0000216 0.0000184 Grocery    
##  6        0 Consumed_babyfood_0     0         0         Non-Grocery
##  7        0 Consumed_babyfood_1     0.00117   0.00116   Total      
##  8        0 Consumed_babyfood_1     0.00117   0.00116   Grocery    
##  9        0 Consumed_babyfood_1     0         0         Non-Grocery
## 10        0 Consumed_dairy_tot_0    0.755     0.0244    Total      
## # ℹ 5,282 more rows
…
# pivot to wide
cost_dat3 <-
  cost_dat2 %>% pivot_wider(names_from = intake_type,
                          values_from = c(price_mean, price_se)) %>% 
  arrange(subgroup, food, food_type)

Apply the cleaning function (defined above) to the mean consumed, inedible, and wasted datasets.

# APPLY FUNCTION TO INTAKE DATASETS
cost_consumed_dat <- clean_func(x = allfoods_cost_consumed_bysub1, y = "consumed")

## # A tibble: 5,292 × 5
##    subgroup food          consumed_mean consumed_se food_type  
##       <dbl> <chr>                 <dbl>       <dbl> <chr>      
##  1        0 added_sugar_0      16.8         0.571   Total      
##  2        0 added_sugar_0      11.7         0.454   Grocery    
##  3        0 added_sugar_0       5.11        0.304   Non-Grocery
##  4        0 babyfood_0          0.00712     0.00653 Total      
##  5        0 babyfood_0          0.00712     0.00653 Grocery    
##  6        0 babyfood_0          0           0       Non-Grocery
##  7        0 babyfood_1          0.185       0.184   Total      
##  8        0 babyfood_1          0.185       0.184   Grocery    
##  9        0 babyfood_1          0           0       Non-Grocery
## 10        0 dairy_tot_0       186.          5.90    Total      
## # ℹ 5,282 more rows

cost_wasted_dat <- clean_func(x = allfoods_cost_wasted_bysub1, y = "wasted")

## # A tibble: 5,292 × 5
##    subgroup food          wasted_mean wasted_se food_type  
##       <dbl> <chr>               <dbl>     <dbl> <chr>      
##  1        0 added_sugar_0    7.16      0.294    Total      
##  2        0 added_sugar_0    5.04      0.254    Grocery    
##  3        0 added_sugar_0    2.13      0.124    Non-Grocery
##  4        0 babyfood_0       0.000775  0.000724 Total      
##  5        0 babyfood_0       0.000775  0.000724 Grocery    
##  6        0 babyfood_0       0         0        Non-Grocery
##  7        0 babyfood_1       0.0449    0.0447   Total      
##  8        0 babyfood_1       0.0449    0.0447   Grocery    
##  9        0 babyfood_1       0         0        Non-Grocery
## 10        0 dairy_tot_0     54.1       1.73     Total      
## # ℹ 5,282 more rows

cost_inedible_dat <- clean_func(x = allfoods_cost_inedible_bysub1, y = "inedible")

## # A tibble: 5,292 × 5
##    subgroup food          inedible_mean inedible_se food_type  
##       <dbl> <chr>                 <dbl>       <dbl> <chr>      
##  1        0 added_sugar_0        0.217      0.0228  Total      
##  2        0 added_sugar_0        0.172      0.0193  Grocery    
##  3        0 added_sugar_0        0.0450     0.00874 Non-Grocery
##  4        0 babyfood_0           0          0       Total      
##  5        0 babyfood_0           0          0       Grocery    
##  6        0 babyfood_0           0          0       Non-Grocery
##  7        0 babyfood_1           0.0475     0.0473  Total      
##  8        0 babyfood_1           0.0475     0.0473  Grocery    
##  9        0 babyfood_1           0          0       Non-Grocery
## 10        0 dairy_tot_0          1.72       0.251   Total      
## # ℹ 5,282 more rows
…
# bind with subgroup 0
allfoods_enviro_wasted_bysub1 <- rbind(allfoods_enviro_wasted, allfoods_enviro_wasted_bysub)

6.3.1.4 Clean Output Data

Apply the cleaning function (defined above) to the mean enviro datasets.

# APPLY TO ENVIRO DATA
ghg_dat <- clean_func(x = allfoods_ghg_bysub1, y = "ghg") %>% select(-food_type)

## # A tibble: 1,176 × 5
##    subgroup food                     ghg_mean   ghg_se food_type
##       <dbl> <chr>                       <dbl>    <dbl> <chr>    
##  1        0 Consumed_added_sugar      0.0504  0.000994 <NA>     
##  2        0 Consumed_babyfood         0       0        <NA>     
##  3        0 Consumed_coffee_tea       0.0453  0.00142  <NA>     
##  4        0 Consumed_dairy_cow        0.326   0.00671  <NA>     
##  5        0 Consumed_dairy_soy        0.00251 0.000218 <NA>     
##  6        0 Consumed_fruit_exc_juice  0.0617  0.00371  <NA>     
##  7        0 Consumed_fruit_juice      0.0536  0.00199  <NA>     
##  8        0 Consumed_gr_refined       0.0620  0.00107  <NA>     
##  9        0 Consumed_gr_whole         0.0169  0.000426 <NA>     
## 10        0 Consumed_leg_tot          0.0158  0.000514 <NA>     
## # ℹ 1,166 more rows

ced_dat <- clean_func(x = allfoods_ced_bysub1, y = "ced") %>% select(-food_type)

## # A tibble: 1,176 × 5
##    subgroup food                     ced_mean  ced_se food_type
##       <dbl> <chr>                       <dbl>   <dbl> <chr>    
##  1        0 Consumed_added_sugar       0.492  0.0111  <NA>     
##  2        0 Consumed_babyfood          0      0       <NA>     
##  3        0 Consumed_coffee_tea        0.470  0.0146  <NA>     
##  4        0 Consumed_dairy_cow         1.76   0.0362  <NA>     
##  5        0 Consumed_dairy_soy         0.0164 0.00142 <NA>     
##  6        0 Consumed_fruit_exc_juice   0.468  0.0204  <NA>     
##  7        0 Consumed_fruit_juice       0.422  0.0143  <NA>     
##  8        0 Consumed_gr_refined        0.354  0.00559 <NA>     
##  9        0 Consumed_gr_whole          0.107  0.00230 <NA>     
## 10        0 Consumed_leg_tot           0.0956 0.00270 <NA>     
## # ℹ 1,166 more rows

water_dat <- clean_func(x = allfoods_water_bysub1, y = "water") %>% select(-food_type)

## # A tibble: 1,176 × 5
##    subgroup food                     water_mean water_se food_type
##       <dbl> <chr>                         <dbl>    <dbl> <chr>    
##  1        0 Consumed_added_sugar         35.8     0.719  <NA>     
##  2        0 Consumed_babyfood             0       0      <NA>     
##  3        0 Consumed_coffee_tea          51.5     1.62   <NA>     
##  4        0 Consumed_dairy_cow           91.4     1.88   <NA>     
##  5        0 Consumed_dairy_soy            0.219   0.0190 <NA>     
##  6        0 Consumed_fruit_exc_juice    217.     11.2    <NA>     
##  7        0 Consumed_fruit_juice        140.      3.93   <NA>     
##  8        0 Consumed_gr_refined          96.5     1.48   <NA>     
##  9        0 Consumed_gr_whole            32.3     1.09   <NA>     
## 10        0 Consumed_leg_tot             24.6     1.07   <NA>     
## # ℹ 1,166 more rows

bluewater_dat <- clean_func(x = allfoods_bluewater_bysub1, y = "bluewater") %>% select(-food_type)

## # A tibble: 1,176 × 5
##    subgroup food                     bluewater_mean bluewater_se food_type
##       <dbl> <chr>                             <dbl>        <dbl> <chr>    
##  1        0 Consumed_added_sugar              9.68        0.193  <NA>     
##  2        0 Consumed_babyfood                 0           0      <NA>     
##  3        0 Consumed_coffee_tea               9.15        0.293  <NA>     
##  4        0 Consumed_dairy_cow               21.8         0.449  <NA>     
##  5        0 Consumed_dairy_soy                0.126       0.0109 <NA>     
##  6        0 Consumed_fruit_exc_juice         29.4         1.49   <NA>     
##  7        0 Consumed_fruit_juice             16.9         0.500  <NA>     
##  8        0 Consumed_gr_refined              30.7         0.451  <NA>     
##  9        0 Consumed_gr_whole                 6.66        0.171  <NA>     
## 10        0 Consumed_leg_tot                  5.87        0.213  <NA>     
## # ℹ 1,166 more rows

fl_dat <- clean_func(x = allfoods_fl_bysub1, y = "fl") %>% select(-food_type)

## # A tibble: 1,176 × 5
##    subgroup food                     fl_mean     fl_se food_type
##       <dbl> <chr>                      <dbl>     <dbl> <chr>    
##  1        0 Consumed_added_sugar     0.0223  0.000390  <NA>     
##  2        0 Consumed_babyfood        0       0         <NA>     
##  3        0 Consumed_coffee_tea      0       0         <NA>     
##  4        0 Consumed_dairy_cow       0.0412  0.000847  <NA>     
##  5        0 Consumed_dairy_soy       0.00274 0.000238  <NA>     
##  6        0 Consumed_fruit_exc_juice 0.0304  0.00147   <NA>     
##  7        0 Consumed_fruit_juice     0.0264  0.000803  <NA>     
##  8        0 Consumed_gr_refined      0.00801 0.000203  <NA>     
##  9        0 Consumed_gr_whole        0.00205 0.0000627 <NA>     
## 10        0 Consumed_leg_tot         0.00406 0.000141  <NA>     
## # ℹ 1,166 more rows
…
# pivot to wide
enviro_dat2 <-
  enviro_dat1 %>% pivot_wider(names_from = intake_type,
                            values_from = !c(subgroup, food, intake_type)) %>% 
  arrange(subgroup, food)

Apply the cleaning function (defined above) to the mean consumed, inedible, and wasted datasets.

# APPLY FUNCTION TO INTAKE DAT
enviro_consumed_dat <- clean_func(x = allfoods_enviro_consumed_bysub1, y = "consumed") %>% select(-food_type)

## # A tibble: 1,176 × 5
##    subgroup food            consumed_mean consumed_se food_type
##       <dbl> <chr>                   <dbl>       <dbl> <chr>    
##  1        0 added_sugar             81.1        1.71  <NA>     
##  2        0 babyfood                 1.09       0.176 <NA>     
##  3        0 coffee_tea               6.84       0.223 <NA>     
##  4        0 dairy_cow              189.         5.04  <NA>     
##  5        0 dairy_soy                9.72       0.843 <NA>     
##  6        0 fruit_exc_juice        107.         4.03  <NA>     
##  7        0 fruit_juice             57.0        1.80  <NA>     
##  8        0 gr_refined             108.         1.31  <NA>     
##  9        0 gr_whole                33.6        0.831 <NA>     
## 10        0 leg_tot                 21.5        0.577 <NA>     
## # ℹ 1,166 more rows

enviro_wasted_dat <- clean_func(x = allfoods_enviro_wasted_bysub1, y = "wasted") %>% select(-food_type)

## # A tibble: 1,176 × 5
##    subgroup food            wasted_mean wasted_se food_type
##       <dbl> <chr>                 <dbl>     <dbl> <chr>    
##  1        0 added_sugar          41.3      0.887  <NA>     
##  2        0 babyfood              0.153    0.0461 <NA>     
##  3        0 coffee_tea            0        0      <NA>     
##  4        0 dairy_cow            60.4      1.51   <NA>     
##  5        0 dairy_soy             2.64     0.229  <NA>     
##  6        0 fruit_exc_juice      84.4      5.04   <NA>     
##  7        0 fruit_juice           8.06     0.326  <NA>     
##  8        0 gr_refined           31.3      0.418  <NA>     
##  9        0 gr_whole              8.20     0.189  <NA>     
## 10        0 leg_tot               4.91     0.149  <NA>     
## # ℹ 1,166 more rows

enviro_inedible_dat <- clean_func(x = allfoods_enviro_inedible_bysub1, y = "inedible") %>% select(-food_type)

## # A tibble: 1,176 × 5
##    subgroup food            inedible_mean inedible_se food_type
##       <dbl> <chr>                   <dbl>       <dbl> <chr>    
##  1        0 added_sugar            0           0      <NA>     
##  2        0 babyfood               0.0475      0.0473 <NA>     
##  3        0 coffee_tea             0           0      <NA>     
##  4        0 dairy_cow              0           0      <NA>     
##  5        0 dairy_soy              0           0      <NA>     
##  6        0 fruit_exc_juice       87.3         6.06   <NA>     
##  7        0 fruit_juice            0           0      <NA>     
##  8        0 gr_refined             0           0      <NA>     
##  9        0 gr_whole               5.30        0.245  <NA>     
## 10        0 leg_tot                1.18        0.0663 <NA>     
## # ℹ 1,166 more rows
…
