Chapter 5 Cleaning Code for Cost Data | LASTING Four-Pillar Model Methodology
…
# join with days of intake dataset
price_wide_split1 <- price_wide_split %>% 
  left_join(daysofintake, by = "seqn")

## Warning in left_join(., daysofintake, by = "seqn"): Detected an unexpected many-to-many relationship between `x` and `y`.
## ℹ Row 10171 of `x` matches multiple rows in `y`.
## ℹ Row 1 of `y` matches multiple rows in `x`.
## ℹ If a many-to-many relationship is expected, set `relationship = "many-to-many"` to silence this warning.

# check
price_wide_split1 %>% filter(daysintake == 1 & is.na(consumed_per_day_Other_1)) #good

## # A tibble: 17,721 × 21
## # Groups:   seqn, foodcode [17,721]
##     seqn foodcode mixed_dish price_per_day_Consum…¹ price_per_day_Consum…² price_per_day_Consum…³ price_per_day_Consum…⁴
##    <dbl> <chr>         <dbl>                  <dbl>                  <dbl>                  <dbl>                  <dbl>
##  1 83735 12310350          0                     NA                 0.0719                     NA                     NA
##  2 83735 54301100          0                     NA                 0.161                      NA                     NA
##  3 83735 58106602          1                     NA                 0.725                      NA                     NA
##  4 83735 71405040          0                     NA                 0.355                      NA                     NA
##  5 83735 91705300          0                     NA                 0.131                      NA                     NA
##  6 83735 91705310          0                     NA                 0.253                      NA                     NA
##  7 83735 91745010          0                     NA                 0.0791                     NA                     NA
##  8 83735 92410370          0                     NA                 0.521                      NA                     NA
##  9 83735 94100100          0                     NA                 0.0634                     NA                     NA
## 10 83750 11112110          0                     NA                 0.458                      NA                     NA
## # ℹ 17,711 more rows
## # ℹ abbreviated names: ¹​price_per_day_Consumed_Other_2, ²​price_per_day_Consumed_Grocery_1,
## #   ³​price_per_day_Consumed_Grocery_2, ⁴​price_per_day_Consumed_Other_1
## # ℹ 14 more variables: consumed_per_day_Other_2 <dbl>, consumed_per_day_Grocery_1 <dbl>,
## #   consumed_per_day_Grocery_2 <dbl>, consumed_per_day_Other_1 <dbl>, inedible_per_day_Other_2 <dbl>,
## #   inedible_per_day_Grocery_1 <dbl>, inedible_per_day_Grocery_2 <dbl>, inedible_per_day_Other_1 <dbl>,
## #   wasted_per_day_Other_2 <dbl>, wasted_per_day_Grocery_1 <dbl>, wasted_per_day_Grocery_2 <dbl>, …
…
