Chapter 4 Cleaning Code for Environment Data | LASTING Four-Pillar Model Methodology
…
## # A tibble: 6 × 20
##    seqn daysintake reliable  line foodcode grams description  added_sugar   ssb Foodgroup_FNDDS fcidcode fcid_desc    wt
##   <dbl>      <dbl>    <dbl> <dbl>    <dbl> <dbl> <chr>              <dbl> <dbl> <chr>              <dbl> <chr>     <dbl>
## 1 83732          2        1     2 91200040     4 Sugar subst…           0     0 added_sugar           NA <NA>         NA
## 2 83732          2        1     7 92410320   600 Soft drink,…           0     0 other                 NA <NA>         NA
## 3 83732          2        1     2 91200040     2 Sugar subst…           0     0 added_sugar           NA <NA>         NA
## 4 83732          2        1    15 92410520   480 Soft drink,…           0     0 other                 NA <NA>         NA
## 5 83735          1        1     4 92410370   180 Soft drink,…           0     0 other                 NA <NA>         NA
## 6 83735          1        1    11 92410370   360 Soft drink,…           0     0 other                 NA <NA>         NA
## # ℹ 7 more variables: foodsource <chr>, nhanes_cycle <chr>, dayrec <dbl>, waste_coef <dbl>, ined_coef <dbl>,
## #   retloss_coef <dbl>, Foodgroup_FCID <chr>

both_days7 %>% filter(is.na(Foodgroup_FCID)) %>% select(foodcode, description) %>% distinct()

## # A tibble: 57 × 2
##    foodcode description                                    
##       <dbl> <chr>                                          
##  1 91200040 Sugar substitute, saccharin, powder            
##  2 92410320 Soft drink, cola, diet                         
##  3 92410520 Soft drink, fruit flavored, diet, caffeine free
##  4 92410370 Soft drink, pepper type, diet                  
##  5 92410350 Soft drink, cola, decaffeinated, diet          
##  6 91201010 Sugar substitute, aspartame, powder            
##  7 91107000 Sugar substitute, sucralose, powder            
##  8 92410210 Carbonated water, unsweetened                  
##  9 93301217 Vodka and water                                
## 10 93301218 Vodka and tonic                                
## # ℹ 47 more rows
…
# join
sea_join <- left_join(seafood, sea_scores, by = c("foodcode" = "FNDDS_Code"))

## Warning in left_join(seafood, sea_scores, by = c(foodcode = "FNDDS_Code")): Detected an unexpected many-to-many relationship between `x` and `y`.
## ℹ Row 26 of `x` matches multiple rows in `y`.
## ℹ Row 15 of `y` matches multiple rows in `x`.
## ℹ If a many-to-many relationship is expected, set `relationship = "many-to-many"` to silence this warning.

The seafood dish “bouillabaisse” was very complicated to handle, and therefore we had to calculate the FL score for this dish in a separate Excel sheet, which gets read in below.

# missing
sea_join %>% filter(is.na(FL_Score_Value_grams)) # bouillabaise

## # A tibble: 24 × 31
##     seqn daysintake reliable  line foodcode grams description   added_sugar   ssb Foodgroup_FNDDS fcidcode   fcid_desc  
##    <dbl>      <dbl>    <dbl> <dbl>    <dbl> <dbl> <chr>               <dbl> <dbl> <chr>           <chr>      <chr>      
##  1 84522          1        1     4 27350110  497. Bouillabaisse           0     0 pf_seafood      8000161000 Fish-shell…
##  2 84522          1        1     4 27350110  497. Bouillabaisse           0     0 pf_seafood      8000160000 Fish-saltw…
##  3 84522          1        1     4 27350110  497. Bouillabaisse           0     0 pf_seafood      8000162000 Fish-shell…
##  4 84522          1        1     4 27350110  497. Bouillabaisse           0     0 pf_seafood      8000157000 Fish-fresh…
##  5 85731          2        1     9 27350110  454  Bouillabaisse           0     0 pf_seafood      8000161000 Fish-shell…
##  6 85731          2        1     9 27350110  454  Bouillabaisse           0     0 pf_seafood      8000160000 Fish-saltw…
##  7 85731          2        1     9 27350110  454  Bouillabaisse           0     0 pf_seafood      8000162000 Fish-shell…
##  8 85731          2        1     9 27350110  454  Bouillabaisse           0     0 pf_seafood      8000157000 Fish-fresh…
##  9 86452          2        1     5 27350110  454  Bouillabaisse           0     0 pf_seafood      8000161000 Fish-shell…
## 10 86452          2        1     5 27350110  454  Bouillabaisse           0     0 pf_seafood      8000160000 Fish-saltw…
## # ℹ 14 more rows
## # ℹ 19 more variables: wt <dbl>, foodsource <chr>, nhanes_cycle <chr>, dayrec <dbl>, waste_coef <dbl>, ined_coef <dbl>,
## #   retloss_coef <dbl>, Foodgroup_FCID <chr>, consumed_amt_FCID <dbl>, inedible_amt_FCID <dbl>, wasted_amt_FCID <dbl>,
## #   consumed_amt_FNDDS <dbl>, inedible_amt_FNDDS <dbl>, wasted_amt_FNDDS <dbl>, CED_mn <dbl>, GHG_mn <dbl>,
## #   WATER_mn <dbl>, BLUEWATER_mn <dbl>, FL_Score_Value_grams <dbl>
…
